0;Sin Club Asignado;images/clubs/club_sinclub.png
1;A.D. Collado Mediano;images/clubs/club_colladomediano.png
2;Arco Boadilla;images/clubs/club_arcoboadilla.png
3;Arco Club Navalmoral;images/clubs/club_navalmoral.png
4;Arcomadrid;images/clubs/club_arcomadrid.png
5;Arcosoto;images/clubs/club_arcosoto.png
6;Arcus;images/clubs/club_arcus.png
7;Arqueros 10 Galapagar;images/clubs/club_arqueros10.png
8;Arqueros de Aranjuez;images/clubs/club_arcoaranjuez.png
9;Arqueros de Colmenar;images/clubs/club_colmenar.png
10;Arqueros de Getafe;images/clubs/club_arquerosgetafe.png
11;Arqueros de Leganés;images/clubs/club_arquerosdeleganes.png
12;Arqueros de Madrid;images/clubs/club_arquerosdemadrid.png
13;Arqueros de Manzanares;images/clubs/club_arquerosdemanzanares.png
14;Arqueros de Marqués de Suances;images/clubs/club_arquersomarquesdesuances.png
15;Arqueros de Pozuelo;images/clubs/club_arquerosdepozuelo.png
16;Arqueros de San Lorenzo;images/clubs/club_arquerosdesanlorenzo.png
17;Arqueros de Sol XIV;images/clubs/club_arquerosdesolxiv.png
18;Arqueros de Ulises;images/clubs/club_arquerosdeulises.png
19;Arqueros de Villa de Valdemorillo;images/clubs/club_arquerosdevaldemorillo.png
20;Caracal;images/clubs/club_caracal.png
21;CD Arco Cuenca;images/clubs/club_arcocuenca.png
22;CDE Arco Las Rozas;images/clubs/club_sinclub.png
23;CDETA Rivas Vaciamadrid;images/clubs/club_cdeta.png
24;CDETA Tarancón;images/clubs/club_etatarancon.png
25;Club Artemisa;images/clubs/club_artemisa.png
26;Club Deportivo Elemental Diez;images/clubs/club_arqueros10.png
27;Club Águila Imperial;images/clubs/club_aguilaimperial.png
28;Majaltobar;images/clubs/club_majaltobar.png
29;Moratalaz;images/clubs/club_moratalaz.png
30;Olimpo;images/clubs/club_olimpo.png
31;Sagitta;images/clubs/club_sagitta.png
32;Villa de Alcobendas;images/clubs/club_villadealcobendas.png
33;Villa de Valdemoro;images/clubs/club_valdemoro.png
34;sdsd;images/clubs/club_arquerosdeleganes.png
